module organization_service

go 1.21.4

require (
	github.com/golang/protobuf v1.5.3
	github.com/google/uuid v1.6.0
	github.com/jackc/pgx/v5 v5.5.5
	github.com/joho/godotenv v1.5.1
	github.com/spf13/cast v1.6.0
	google.golang.org/grpc v1.62.1
	google.golang.org/protobuf v1.33.0
)

require (
	github.com/jackc/pgpassfile v1.0.0 // indirect
	github.com/jackc/pgservicefile v0.0.0-20221227161230-091c0ba34f0a // indirect
	github.com/jackc/puddle/v2 v2.2.1 // indirect
	golang.org/x/crypto v0.18.0 // indirect
	golang.org/x/net v0.20.0 // indirect
	golang.org/x/sync v0.6.0 // indirect
	golang.org/x/sys v0.16.0 // indirect
	golang.org/x/text v0.14.0 // indirect
	google.golang.org/genproto/googleapis/rpc v0.0.0-20240123012728-ef4313101c80 // indirect
)
